<svg xmlns="http://www.w3.org/2000/svg" width="22" height="21.929" viewBox="0 0 22 21.929">
  <g id="logout_1_" data-name="logout (1)" transform="translate(0.25 -0.6)" opacity="0.5">
    <g id="Group_13926" data-name="Group 13926" transform="translate(0 0.85)">
      <g id="Group_13925" data-name="Group 13925">
        <path id="Path_4739" data-name="Path 4739" d="M10.714,20.493H2.679a.893.893,0,0,1-.893-.893V3.529a.893.893,0,0,1,.893-.893h8.036a.893.893,0,0,0,0-1.786H2.679A2.682,2.682,0,0,0,0,3.529V19.6a2.682,2.682,0,0,0,2.679,2.679h8.036a.893.893,0,1,0,0-1.786Z" transform="translate(0 -0.85)" fill="#2b3d67" stroke="#f5f5f5" stroke-width="0.5"/>
      </g>
    </g>
    <g id="Group_13928" data-name="Group 13928" transform="translate(7.143 5.314)">
      <g id="Group_13927" data-name="Group 13927">
        <path id="Path_4740" data-name="Path 4740" d="M184.191,112.779l-5.429-5.357a.893.893,0,0,0-1.254,1.271l3.879,3.829h-10.4a.893.893,0,0,0,0,1.786h10.4l-3.879,3.829a.893.893,0,1,0,1.254,1.271l5.429-5.357a.892.892,0,0,0,0-1.271Z" transform="translate(-170.1 -107.165)" fill="#2b3d67" stroke="#f5f5f5" stroke-width="0.5"/>
      </g>
    </g>
  </g>
</svg>
